<?xml version="1.0" encoding="utf-8"?>
<!-- Generator: Adobe Illustrator 16.0.0, SVG Export Plug-In . SVG Version: 6.00 Build 0)  -->
<!DOCTYPE svg PUBLIC "-//W3C//DTD SVG 1.1//EN" "http://www.w3.org/Graphics/SVG/1.1/DTD/svg11.dtd">
<svg version="1.1" xmlns="http://www.w3.org/2000/svg" xmlns:xlink="http://www.w3.org/1999/xlink" x="0px" y="0px" width="16px"
   height="16px" viewBox="0 0 16 16" enable-background="new 0 0 16 16" xml:space="preserve">
<g id="bg" display="none">
  <rect display="inline" fill="#3F3F3F" width="16" height="16"/>
</g>
<g id="Layer_3">
  <polygon id="Houde" fill="#FFFFFF" points="8,1.5 1.002,7.498 2.954,7.499 2.964,13.496 5.984,13.496 5.984,9.783 9.984,9.783
    9.984,13.496 12.999,13.496 12.999,7.498 14.967,7.498   "/>
  <rect x="10.313" y="1.871" fill="#FFFFFF" width="1.884" height="5"/>
</g>
</svg>
